ISE/SATD/isim.log
ISim log file
Running: /media/juliana/LinFiles/Documents/GitHub/SATD-research/ISE/SATD/control_tb_isim_beh.exe -intstyle ise -gui -tclbatch isim.cmd -wdb /media/juliana/LinFiles/Documents/GitHub/SATD-research/ISE/SATD/control_tb_isim_beh.wdb 
INFO: There is another simulation running in the same directory. Using database file name isim1.wdb.
ISim P.20131013 (signature 0xfbc00daa)
WARNING: A WEBPACK license was found.
WARNING: Please use Xilinx License Configuration Manager to check out a full ISim license.
WARNING: ISim will run in Lite mode. Please refer to the ISim documentation for more information on the differences between the Lite and the Full version.
This is a Lite version of ISim.
Time resolution is 1 ps
# onerror resume
# wave add /
# run 1000 ns
Simulator is doing circuit initialization process.
Finished circuit initialization process.
Inverti o clock
Ciclo de Clock: 2, clock: 1, stage: 00, count: 000
Inverti o clock
Ciclo de Clock: 6, clock: 0, stage: 00, count: 000
Inverti o clock
Ciclo de Clock: 10, clock: 1, stage: 00, count: 000
Inverti o clock
Ciclo de Clock: 14, clock: 0, stage: 01, count: 000
Inverti o clock
Ciclo de Clock: 18, clock: 1, stage: 01, count: 000
Inverti o clock
Ciclo de Clock: 22, clock: 0, stage: 01, count: 001
Inverti o clock
Ciclo de Clock: 26, clock: 1, stage: 01, count: 001
Inverti o clock
Ciclo de Clock: 30, clock: 0, stage: 01, count: 010
Inverti o clock
Ciclo de Clock: 34, clock: 1, stage: 01, count: 010
Inverti o clock
Ciclo de Clock: 38, clock: 0, stage: 01, count: 011
Inverti o clock
Ciclo de Clock: 42, clock: 1, stage: 01, count: 011
Inverti o clock
Ciclo de Clock: 46, clock: 0, stage: 01, count: 100
Inverti o clock
Ciclo de Clock: 50, clock: 1, stage: 01, count: 100
Inverti o clock
Ciclo de Clock: 54, clock: 0, stage: 01, count: 101
Inverti o clock
Ciclo de Clock: 58, clock: 1, stage: 01, count: 101
Inverti o clock
Ciclo de Clock: 62, clock: 0, stage: 01, count: 110
Inverti o clock
Ciclo de Clock: 66, clock: 1, stage: 01, count: 110
Inverti o clock
Ciclo de Clock: 70, clock: 0, stage: 01, count: 111
Inverti o clock
Ciclo de Clock: 74, clock: 1, stage: 01, count: 111
Inverti o clock
Ciclo de Clock: 78, clock: 0, stage: 10, count: 000
Inverti o clock
Ciclo de Clock: 82, clock: 1, stage: 10, count: 000
Inverti o clock
Ciclo de Clock: 86, clock: 0, stage: 10, count: 001
Inverti o clock
Ciclo de Clock: 90, clock: 1, stage: 10, count: 001
Inverti o clock
Ciclo de Clock: 94, clock: 0, stage: 10, count: 010
Inverti o clock
Ciclo de Clock: 98, clock: 1, stage: 10, count: 010
Inverti o clock
Ciclo de Clock: 102, clock: 0, stage: 10, count: 011
Inverti o clock
Ciclo de Clock: 106, clock: 1, stage: 10, count: 011
Inverti o clock
Ciclo de Clock: 110, clock: 0, stage: 10, count: 100
Inverti o clock
Ciclo de Clock: 114, clock: 1, stage: 10, count: 100
Inverti o clock
Ciclo de Clock: 118, clock: 0, stage: 10, count: 101
Inverti o clock
Ciclo de Clock: 122, clock: 1, stage: 10, count: 101
Inverti o clock
Ciclo de Clock: 126, clock: 0, stage: 10, count: 110
Inverti o clock
Ciclo de Clock: 130, clock: 1, stage: 10, count: 110
Inverti o clock
Ciclo de Clock: 134, clock: 0, stage: 10, count: 111
Inverti o clock
Ciclo de Clock: 138, clock: 1, stage: 10, count: 111
Inverti o clock
Ciclo de Clock: 142, clock: 0, stage: 11, count: 000
Inverti o clock
Ciclo de Clock: 146, clock: 1, stage: 11, count: 000
Inverti o clock
Ciclo de Clock: 150, clock: 0, stage: 11, count: 001
Inverti o clock
Ciclo de Clock: 154, clock: 1, stage: 11, count: 001
Inverti o clock
Ciclo de Clock: 158, clock: 0, stage: 00, count: 000
Inverti o clock
Ciclo de Clock: 162, clock: 1, stage: 00, count: 000
Inverti o clock
Ciclo de Clock: 166, clock: 0, stage: 01, count: 000
Inverti o clock
Ciclo de Clock: 170, clock: 1, stage: 01, count: 000
Inverti o clock
Ciclo de Clock: 174, clock: 0, stage: 01, count: 001
Inverti o clock
Ciclo de Clock: 178, clock: 1, stage: 01, count: 001
Inverti o clock
Ciclo de Clock: 182, clock: 0, stage: 01, count: 010
Inverti o clock
Ciclo de Clock: 186, clock: 1, stage: 01, count: 010
Inverti o clock
Ciclo de Clock: 190, clock: 0, stage: 01, count: 011
Inverti o clock
Ciclo de Clock: 194, clock: 1, stage: 01, count: 011
Inverti o clock
Ciclo de Clock: 198, clock: 0, stage: 01, count: 100
Inverti o clock
Ciclo de Clock: 202, clock: 1, stage: 01, count: 100
Inverti o clock
Ciclo de Clock: 206, clock: 0, stage: 01, count: 101
Inverti o clock
Ciclo de Clock: 210, clock: 1, stage: 01, count: 101
Inverti o clock
Ciclo de Clock: 214, clock: 0, stage: 01, count: 110
Inverti o clock
Ciclo de Clock: 218, clock: 1, stage: 01, count: 110
Inverti o clock
Ciclo de Clock: 222, clock: 0, stage: 01, count: 111
Inverti o clock
Ciclo de Clock: 226, clock: 1, stage: 01, count: 111
Inverti o clock
Ciclo de Clock: 230, clock: 0, stage: 10, count: 000
Inverti o clock
Ciclo de Clock: 234, clock: 1, stage: 10, count: 000
Inverti o clock
Ciclo de Clock: 238, clock: 0, stage: 10, count: 001
Inverti o clock
Ciclo de Clock: 242, clock: 1, stage: 10, count: 001
Inverti o clock
Ciclo de Clock: 246, clock: 0, stage: 10, count: 010
Inverti o clock
Ciclo de Clock: 250, clock: 1, stage: 10, count: 010
Inverti o clock
Ciclo de Clock: 254, clock: 0, stage: 10, count: 011
Inverti o clock
Ciclo de Clock: 258, clock: 1, stage: 10, count: 011
Inverti o clock
Ciclo de Clock: 262, clock: 0, stage: 10, count: 100
Inverti o clock
Ciclo de Clock: 266, clock: 1, stage: 10, count: 100
Inverti o clock
Ciclo de Clock: 270, clock: 0, stage: 10, count: 101
Inverti o clock
Ciclo de Clock: 274, clock: 1, stage: 10, count: 101
Inverti o clock
Ciclo de Clock: 278, clock: 0, stage: 10, count: 110
Inverti o clock
Ciclo de Clock: 282, clock: 1, stage: 10, count: 110
Inverti o clock
Ciclo de Clock: 286, clock: 0, stage: 10, count: 111
Inverti o clock
Ciclo de Clock: 290, clock: 1, stage: 10, count: 111
Inverti o clock
Ciclo de Clock: 294, clock: 0, stage: 11, count: 000
Inverti o clock
Ciclo de Clock: 298, clock: 1, stage: 11, count: 000
Inverti o clock
Ciclo de Clock: 302, clock: 0, stage: 11, count: 001
Inverti o clock
Ciclo de Clock: 306, clock: 1, stage: 11, count: 001
Inverti o clock
Ciclo de Clock: 310, clock: 0, stage: 00, count: 000
Inverti o clock
Ciclo de Clock: 314, clock: 1, stage: 00, count: 000
Inverti o clock
Ciclo de Clock: 318, clock: 0, stage: 01, count: 000
Inverti o clock
Ciclo de Clock: 322, clock: 1, stage: 01, count: 000
Inverti o clock
Ciclo de Clock: 326, clock: 0, stage: 01, count: 001
Inverti o clock
Ciclo de Clock: 330, clock: 1, stage: 01, count: 001
Inverti o clock
Ciclo de Clock: 334, clock: 0, stage: 01, count: 010
Inverti o clock
Ciclo de Clock: 338, clock: 1, stage: 01, count: 010
Inverti o clock
Ciclo de Clock: 342, clock: 0, stage: 01, count: 011
Inverti o clock
Ciclo de Clock: 346, clock: 1, stage: 01, count: 011
Inverti o clock
Ciclo de Clock: 350, clock: 0, stage: 01, count: 100
Inverti o clock
Ciclo de Clock: 354, clock: 1, stage: 01, count: 100
Inverti o clock
Ciclo de Clock: 358, clock: 0, stage: 01, count: 101
Inverti o clock
Ciclo de Clock: 362, clock: 1, stage: 01, count: 101
Inverti o clock
Ciclo de Clock: 366, clock: 0, stage: 01, count: 110
Inverti o clock
Ciclo de Clock: 370, clock: 1, stage: 01, count: 110
Inverti o clock
Ciclo de Clock: 374, clock: 0, stage: 01, count: 111
Inverti o clock
Ciclo de Clock: 378, clock: 1, stage: 01, count: 111
Inverti o clock
Ciclo de Clock: 382, clock: 0, stage: 10, count: 000
Inverti o clock
Ciclo de Clock: 386, clock: 1, stage: 10, count: 000
Inverti o clock
Ciclo de Clock: 390, clock: 0, stage: 10, count: 001
Inverti o clock
Ciclo de Clock: 394, clock: 1, stage: 10, count: 001
Inverti o clock
Ciclo de Clock: 398, clock: 0, stage: 10, count: 010
Inverti o clock
Ciclo de Clock: 402, clock: 1, stage: 10, count: 010
Inverti o clock
Ciclo de Clock: 406, clock: 0, stage: 10, count: 011
Inverti o clock
Ciclo de Clock: 410, clock: 1, stage: 10, count: 011
Inverti o clock
Ciclo de Clock: 414, clock: 0, stage: 10, count: 100
Inverti o clock
Ciclo de Clock: 418, clock: 1, stage: 10, count: 100
Inverti o clock
Ciclo de Clock: 422, clock: 0, stage: 10, count: 101
Inverti o clock
Ciclo de Clock: 426, clock: 1, stage: 10, count: 101
Inverti o clock
Ciclo de Clock: 430, clock: 0, stage: 10, count: 110
Inverti o clock
Ciclo de Clock: 434, clock: 1, stage: 10, count: 110
Inverti o clock
Ciclo de Clock: 438, clock: 0, stage: 10, count: 111
Inverti o clock
Ciclo de Clock: 442, clock: 1, stage: 10, count: 111
Inverti o clock
Ciclo de Clock: 446, clock: 0, stage: 11, count: 000
Inverti o clock
Ciclo de Clock: 450, clock: 1, stage: 11, count: 000
Inverti o clock
Ciclo de Clock: 454, clock: 0, stage: 11, count: 001
Inverti o clock
Ciclo de Clock: 458, clock: 1, stage: 11, count: 001
Inverti o clock
Ciclo de Clock: 462, clock: 0, stage: 00, count: 000
Inverti o clock
Ciclo de Clock: 466, clock: 1, stage: 00, count: 000
Inverti o clock
Ciclo de Clock: 470, clock: 0, stage: 01, count: 000
Inverti o clock
Ciclo de Clock: 474, clock: 1, stage: 01, count: 000
Inverti o clock
Ciclo de Clock: 478, clock: 0, stage: 01, count: 001
Inverti o clock
Ciclo de Clock: 482, clock: 1, stage: 01, count: 001
Inverti o clock
Ciclo de Clock: 486, clock: 0, stage: 01, count: 010
Inverti o clock
Ciclo de Clock: 490, clock: 1, stage: 01, count: 010
Inverti o clock
Ciclo de Clock: 494, clock: 0, stage: 01, count: 011
Inverti o clock
Ciclo de Clock: 498, clock: 1, stage: 01, count: 011
Inverti o clock
Ciclo de Clock: 502, clock: 0, stage: 01, count: 100
Inverti o clock
Ciclo de Clock: 506, clock: 1, stage: 01, count: 100
Inverti o clock
Ciclo de Clock: 510, clock: 0, stage: 01, count: 101
Inverti o clock
Ciclo de Clock: 514, clock: 1, stage: 01, count: 101
Inverti o clock
Ciclo de Clock: 518, clock: 0, stage: 01, count: 110
Inverti o clock
Ciclo de Clock: 522, clock: 1, stage: 01, count: 110
Inverti o clock
Ciclo de Clock: 526, clock: 0, stage: 01, count: 111
Inverti o clock
Ciclo de Clock: 530, clock: 1, stage: 01, count: 111
Inverti o clock
Ciclo de Clock: 534, clock: 0, stage: 10, count: 000
Inverti o clock
Ciclo de Clock: 538, clock: 1, stage: 10, count: 000
Inverti o clock
Ciclo de Clock: 542, clock: 0, stage: 10, count: 001
Inverti o clock
Ciclo de Clock: 546, clock: 1, stage: 10, count: 001
Inverti o clock
Ciclo de Clock: 550, clock: 0, stage: 10, count: 010
Inverti o clock
Ciclo de Clock: 554, clock: 1, stage: 10, count: 010
Inverti o clock
Ciclo de Clock: 558, clock: 0, stage: 10, count: 011
Inverti o clock
Ciclo de Clock: 562, clock: 1, stage: 10, count: 011
Inverti o clock
Ciclo de Clock: 566, clock: 0, stage: 10, count: 100
Inverti o clock
Ciclo de Clock: 570, clock: 1, stage: 10, count: 100
Inverti o clock
Ciclo de Clock: 574, clock: 0, stage: 10, count: 101
Inverti o clock
Ciclo de Clock: 578, clock: 1, stage: 10, count: 101
Inverti o clock
Ciclo de Clock: 582, clock: 0, stage: 10, count: 110
Inverti o clock
Ciclo de Clock: 586, clock: 1, stage: 10, count: 110
Inverti o clock
Ciclo de Clock: 590, clock: 0, stage: 10, count: 111
Inverti o clock
Ciclo de Clock: 594, clock: 1, stage: 10, count: 111
Inverti o clock
Ciclo de Clock: 598, clock: 0, stage: 11, count: 000
Inverti o clock
Ciclo de Clock: 602, clock: 1, stage: 11, count: 000
Inverti o clock
Ciclo de Clock: 606, clock: 0, stage: 11, count: 001
Inverti o clock
Ciclo de Clock: 610, clock: 1, stage: 11, count: 001
Inverti o clock
Ciclo de Clock: 614, clock: 0, stage: 00, count: 000
Inverti o clock
Ciclo de Clock: 618, clock: 1, stage: 00, count: 000
Inverti o clock
Ciclo de Clock: 622, clock: 0, stage: 01, count: 000
Inverti o clock
Ciclo de Clock: 626, clock: 1, stage: 01, count: 000
Inverti o clock
Ciclo de Clock: 630, clock: 0, stage: 01, count: 001
Inverti o clock
Ciclo de Clock: 634, clock: 1, stage: 01, count: 001
Inverti o clock
Ciclo de Clock: 638, clock: 0, stage: 01, count: 010
Inverti o clock
Ciclo de Clock: 642, clock: 1, stage: 01, count: 010
Inverti o clock
Ciclo de Clock: 646, clock: 0, stage: 01, count: 011
Inverti o clock
Ciclo de Clock: 650, clock: 1, stage: 01, count: 011
Inverti o clock
Ciclo de Clock: 654, clock: 0, stage: 01, count: 100
Inverti o clock
Ciclo de Clock: 658, clock: 1, stage: 01, count: 100
Inverti o clock
Ciclo de Clock: 662, clock: 0, stage: 01, count: 101
Inverti o clock
Ciclo de Clock: 666, clock: 1, stage: 01, count: 101
Inverti o clock
Ciclo de Clock: 670, clock: 0, stage: 01, count: 110
Inverti o clock
Ciclo de Clock: 674, clock: 1, stage: 01, count: 110
Inverti o clock
Ciclo de Clock: 678, clock: 0, stage: 01, count: 111
Inverti o clock
Ciclo de Clock: 682, clock: 1, stage: 01, count: 111
Inverti o clock
Ciclo de Clock: 686, clock: 0, stage: 10, count: 000
Inverti o clock
Ciclo de Clock: 690, clock: 1, stage: 10, count: 000
Inverti o clock
Ciclo de Clock: 694, clock: 0, stage: 10, count: 001
Inverti o clock
Ciclo de Clock: 698, clock: 1, stage: 10, count: 001
Inverti o clock
Ciclo de Clock: 702, clock: 0, stage: 10, count: 010
Inverti o clock
Ciclo de Clock: 706, clock: 1, stage: 10, count: 010
Inverti o clock
Ciclo de Clock: 710, clock: 0, stage: 10, count: 011
Inverti o clock
Ciclo de Clock: 714, clock: 1, stage: 10, count: 011
Inverti o clock
Ciclo de Clock: 718, clock: 0, stage: 10, count: 100
Inverti o clock
Ciclo de Clock: 722, clock: 1, stage: 10, count: 100
Inverti o clock
Ciclo de Clock: 726, clock: 0, stage: 10, count: 101
Inverti o clock
Ciclo de Clock: 730, clock: 1, stage: 10, count: 101
Inverti o clock
Ciclo de Clock: 734, clock: 0, stage: 10, count: 110
Inverti o clock
Ciclo de Clock: 738, clock: 1, stage: 10, count: 110
Inverti o clock
Ciclo de Clock: 742, clock: 0, stage: 10, count: 111
Inverti o clock
Ciclo de Clock: 746, clock: 1, stage: 10, count: 111
Inverti o clock
Ciclo de Clock: 750, clock: 0, stage: 11, count: 000
Inverti o clock
Ciclo de Clock: 754, clock: 1, stage: 11, count: 000
Inverti o clock
Ciclo de Clock: 758, clock: 0, stage: 11, count: 001
Inverti o clock
Ciclo de Clock: 762, clock: 1, stage: 11, count: 001
Inverti o clock
Ciclo de Clock: 766, clock: 0, stage: 00, count: 000
Inverti o clock
Ciclo de Clock: 770, clock: 1, stage: 00, count: 000
Inverti o clock
Ciclo de Clock: 774, clock: 0, stage: 01, count: 000
Inverti o clock
Ciclo de Clock: 778, clock: 1, stage: 01, count: 000
Inverti o clock
Ciclo de Clock: 782, clock: 0, stage: 01, count: 001
Inverti o clock
Ciclo de Clock: 786, clock: 1, stage: 01, count: 001
Inverti o clock
Ciclo de Clock: 790, clock: 0, stage: 01, count: 010
Inverti o clock
Ciclo de Clock: 794, clock: 1, stage: 01, count: 010
Inverti o clock
Ciclo de Clock: 798, clock: 0, stage: 01, count: 011
Inverti o clock
Ciclo de Clock: 802, clock: 1, stage: 01, count: 011
Inverti o clock
Ciclo de Clock: 806, clock: 0, stage: 01, count: 100
Inverti o clock
Ciclo de Clock: 810, clock: 1, stage: 01, count: 100
Inverti o clock
Ciclo de Clock: 814, clock: 0, stage: 01, count: 101
Inverti o clock
Ciclo de Clock: 818, clock: 1, stage: 01, count: 101
Inverti o clock
Ciclo de Clock: 822, clock: 0, stage: 01, count: 110
Inverti o clock
Ciclo de Clock: 826, clock: 1, stage: 01, count: 110
Inverti o clock
Ciclo de Clock: 830, clock: 0, stage: 01, count: 111
Inverti o clock
Ciclo de Clock: 834, clock: 1, stage: 01, count: 111
Inverti o clock
Ciclo de Clock: 838, clock: 0, stage: 10, count: 000
Inverti o clock
Ciclo de Clock: 842, clock: 1, stage: 10, count: 000
Inverti o clock
Ciclo de Clock: 846, clock: 0, stage: 10, count: 001
Inverti o clock
Ciclo de Clock: 850, clock: 1, stage: 10, count: 001
Inverti o clock
Ciclo de Clock: 854, clock: 0, stage: 10, count: 010
Inverti o clock
Ciclo de Clock: 858, clock: 1, stage: 10, count: 010
Inverti o clock
Ciclo de Clock: 862, clock: 0, stage: 10, count: 011
Inverti o clock
Ciclo de Clock: 866, clock: 1, stage: 10, count: 011
Inverti o clock
Ciclo de Clock: 870, clock: 0, stage: 10, count: 100
Inverti o clock
Ciclo de Clock: 874, clock: 1, stage: 10, count: 100
Inverti o clock
Ciclo de Clock: 878, clock: 0, stage: 10, count: 101
Inverti o clock
Ciclo de Clock: 882, clock: 1, stage: 10, count: 101
Inverti o clock
Ciclo de Clock: 886, clock: 0, stage: 10, count: 110
Inverti o clock
Ciclo de Clock: 890, clock: 1, stage: 10, count: 110
Inverti o clock
Ciclo de Clock: 894, clock: 0, stage: 10, count: 111
Inverti o clock
Ciclo de Clock: 898, clock: 1, stage: 10, count: 111
Inverti o clock
Ciclo de Clock: 902, clock: 0, stage: 11, count: 000
Inverti o clock
Ciclo de Clock: 906, clock: 1, stage: 11, count: 000
Inverti o clock
Ciclo de Clock: 910, clock: 0, stage: 11, count: 001
Inverti o clock
Ciclo de Clock: 914, clock: 1, stage: 11, count: 001
Inverti o clock
Ciclo de Clock: 918, clock: 0, stage: 00, count: 000
Inverti o clock
Ciclo de Clock: 922, clock: 1, stage: 00, count: 000
Inverti o clock
Ciclo de Clock: 926, clock: 0, stage: 01, count: 000
Inverti o clock
Ciclo de Clock: 930, clock: 1, stage: 01, count: 000
Inverti o clock
Ciclo de Clock: 934, clock: 0, stage: 01, count: 001
Inverti o clock
Ciclo de Clock: 938, clock: 1, stage: 01, count: 001
Inverti o clock
Ciclo de Clock: 942, clock: 0, stage: 01, count: 010
Inverti o clock
Ciclo de Clock: 946, clock: 1, stage: 01, count: 010
Inverti o clock
Ciclo de Clock: 950, clock: 0, stage: 01, count: 011
Inverti o clock
Ciclo de Clock: 954, clock: 1, stage: 01, count: 011
Inverti o clock
Ciclo de Clock: 958, clock: 0, stage: 01, count: 100
Inverti o clock
Ciclo de Clock: 962, clock: 1, stage: 01, count: 100
Inverti o clock
Ciclo de Clock: 966, clock: 0, stage: 01, count: 101
Inverti o clock
Ciclo de Clock: 970, clock: 1, stage: 01, count: 101
Inverti o clock
Ciclo de Clock: 974, clock: 0, stage: 01, count: 110
Inverti o clock
Ciclo de Clock: 978, clock: 1, stage: 01, count: 110
Inverti o clock
Ciclo de Clock: 982, clock: 0, stage: 01, count: 111
Inverti o clock
Ciclo de Clock: 986, clock: 1, stage: 01, count: 111
Inverti o clock
Ciclo de Clock: 990, clock: 0, stage: 10, count: 000
Inverti o clock
Ciclo de Clock: 994, clock: 1, stage: 10, count: 000
Inverti o clock
Ciclo de Clock: 998, clock: 0, stage: 10, count: 001
